Introduction to sweep
…
Forecasting Sales of Beer, Wine, and Distilled Alcohol
Beverages

We’ll use the tidyquant package to get the US alcohol
sales, which comes from the FRED data base (the origin is the US Bureau
of the Census, one of the 80+ data sources FRED connects to). The FRED
code is “S4248SM144NCEN” and the data set can be found here.

alcohol_sales_tbl <- tq_get("S4248SM144NCEN", 
                            get  = "economic.data", 
                            from = "2007-01-01",
                            to   = "2016-12-31")
alcohol_sales_tbl

## # A tibble: 120 x 3
##    symbol         date       price
##    <chr>          <date>     <int>
##  1 S4248SM144NCEN 2007-01-01  6627
##  2 S4248SM144NCEN 2007-02-01  6743
##  3 S4248SM144NCEN 2007-03-01  8195
##  4 S4248SM144NCEN 2007-04-01  7828
##  5 S4248SM144NCEN 2007-05-01  9570
##  6 S4248SM144NCEN 2007-06-01  9484
##  7 S4248SM144NCEN 2007-07-01  8608
##  8 S4248SM144NCEN 2007-08-01  9543
##  9 S4248SM144NCEN 2007-09-01  8123
## 10 S4248SM144NCEN 2007-10-01  9649
## # i 110 more rows
…
## # A tibble: 1 x 12
##   model.desc   sigma logLik   AIC   BIC    ME  RMSE   MAE   MPE  MAPE  MASE
##   <chr>        <dbl>  <dbl> <dbl> <dbl> <dbl> <dbl> <dbl> <dbl> <dbl> <dbl>
## 1 ETS(M,Ad,M) 0.0458 -1012. 2060. 2111.  40.7  431.  357. 0.223  3.54 0.705
## # i 1 more variable: ACF1 <dbl>

sw_augment

sw_augment() returns the actual, fitted and residual
values.

augment_fit_ets <- sw_augment(fit_ets)
augment_fit_ets

## # A tibble: 120 x 4
##    index     .actual .fitted   .resid
##    <yearmon>   <dbl>   <dbl>    <dbl>
##  1 Jan 2007     6627   6446.  0.0280 
##  2 Feb 2007     6743   7122. -0.0532 
##  3 Mar 2007     8195   8255. -0.00730
##  4 Apr 2007     7828   8330. -0.0603 
##  5 May 2007     9570   8986.  0.0650 
##  6 Jun 2007     9484   9541. -0.00597
##  7 Jul 2007     8608   8500.  0.0127 
##  8 Aug 2007     9543   8932.  0.0684 
##  9 Sep 2007     8123   8694. -0.0657 
## 10 Oct 2007     9649   8977.  0.0749 
## # i 110 more rows
…
sw_tidy_decomp

sw_tidy_decomp() returns the decomposition of the ETS
model.

decomp_fit_ets <- sw_tidy_decomp(fit_ets)
decomp_fit_ets 

## # A tibble: 121 x 5
##    index     observed level slope season
##    <yearmon>    <dbl> <dbl> <dbl>  <dbl>
##  1 Dec 2006        NA 8389.  38.9  1.17 
##  2 Jan 2007      6627 8464.  42.0  0.765
##  3 Feb 2007      6743 8433.  32.6  0.837
##  4 Mar 2007      8195 8455.  30.5  0.975
##  5 Apr 2007      7828 8404.  20.4  0.982
##  6 May 2007      9570 8510.  29.6  1.07 
##  7 Jun 2007      9484 8531.  27.8  1.12 
##  8 Jul 2007      8608 8575.  29.0  0.993
##  9 Aug 2007      9543 8697.  38.7  1.04 
## 10 Sep 2007      8123 8643.  27.2  0.995
## # i 111 more rows
…
fcast_ets <- fit_ets %>%
    forecast(h = 12) 

Step 4: Tidy the forecast object

We’ll use the sw_sweep() function to coerce a
forecast into a “tidy” data frame. The
sw_sweep() function then coerces the forecast
object into a tibble that can be sent to ggplot for
visualization. Let’s inspect the result.

sw_sweep(fcast_ets, fitted = TRUE)

## # A tibble: 252 x 7
##    index     key    price lo.80 lo.95 hi.80 hi.95
##    <yearmon> <chr>  <dbl> <dbl> <dbl> <dbl> <dbl>
##  1 Jan 2007  actual  6627    NA    NA    NA    NA
##  2 Feb 2007  actual  6743    NA    NA    NA    NA
##  3 Mar 2007  actual  8195    NA    NA    NA    NA
##  4 Apr 2007  actual  7828    NA    NA    NA    NA
##  5 May 2007  actual  9570    NA    NA    NA    NA
##  6 Jun 2007  actual  9484    NA    NA    NA    NA
##  7 Jul 2007  actual  8608    NA    NA    NA    NA
##  8 Aug 2007  actual  9543    NA    NA    NA    NA
##  9 Sep 2007  actual  8123    NA    NA    NA    NA
## 10 Oct 2007  actual  9649    NA    NA    NA    NA
## # i 242 more rows
…
