Use with dplyr
…
series %>%
  mutate(year = year(date), month = month(date)) %>%
  group_by(year, month) %>%
  summarise(mean_var = mean(var))

## # A tibble: 60 × 3
##     year month mean_var
##    <dbl> <dbl>    <dbl>
##  1  2013     1  -0.148 
##  2  2013     2  -0.213 
##  3  2013     3   0.461 
##  4  2013     4  -0.0984
##  5  2013     5   0.155 
##  6  2013     6  -0.112 
##  7  2013     7  -0.0698
##  8  2013     8   0.167 
##  9  2013     9   0.294 
## 10  2013    10  -0.377 
## # … with 50 more rows
…
