Special Missing Values
…
This vignette describes how to add special missing values using the
recode_shadow() function. First we consider some
terminology to explain these ideas, if you are not familiar with the
workflows in naniar.

Terminology

Missing data can be represented as a binary matrix of “missing” or
“not missing”, which in naniar we call a “shadow matrix”, a
term borrowed from Swayne
and Buja, 1998.

library(naniar)
as_shadow(oceanbuoys)
#> # A tibble: 736 × 8
#>    year_NA latitude_NA longitude_NA sea_temp_c_NA air_temp_c_NA humidity_NA
#>    <fct>   <fct>       <fct>        <fct>         <fct>         <fct>      
#>  1 !NA     !NA         !NA          !NA           !NA           !NA        
#>  2 !NA     !NA         !NA          !NA           !NA           !NA        
#>  3 !NA     !NA         !NA          !NA           !NA           !NA        
#>  4 !NA     !NA         !NA          !NA           !NA           !NA        
#>  5 !NA     !NA         !NA          !NA           !NA           !NA        
#>  6 !NA     !NA         !NA          !NA           !NA           !NA        
#>  7 !NA     !NA         !NA          !NA           !NA           !NA        
#>  8 !NA     !NA         !NA          !NA           !NA           !NA        
#>  9 !NA     !NA         !NA          !NA           !NA           !NA        
#> 10 !NA     !NA         !NA          !NA           !NA           !NA        
#> # ℹ 726 more rows
#> # ℹ 2 more variables: wind_ew_NA <fct>, wind_ns_NA <fct>
…
Special missing values: Values in the shadow matrix can be
“special” missing values, indicated as NA_suffix, where
“suffix” is a very short message of the type of missings.

Cohesiveness: Binding the shadow matrix column-wise to the
original data creates a cohesive “nabular” data form, useful for
visualization and summaries.

We create nabular data by binding the
shadow to the data:

bind_shadow(oceanbuoys)
#> # A tibble: 736 × 16
#>     year latitude longitude sea_temp_c air_temp_c humidity wind_ew wind_ns
#>    <dbl>    <dbl>     <dbl>      <dbl>      <dbl>    <dbl>   <dbl>   <dbl>
#>  1  1997        0      -110       27.6       27.1     79.6   -6.40    5.40
#>  2  1997        0      -110       27.5       27.0     75.8   -5.30    5.30
#>  3  1997        0      -110       27.6       27       76.5   -5.10    4.5 
#>  4  1997        0      -110       27.6       26.9     76.2   -4.90    2.5 
#>  5  1997        0      -110       27.6       26.8     76.4   -3.5     4.10
#>  6  1997        0      -110       27.8       26.9     76.7   -4.40    1.60
#>  7  1997        0      -110       28.0       27.0     76.5   -2       3.5 
#>  8  1997        0      -110       28.0       27.1     78.3   -3.70    4.5 
#>  9  1997        0      -110       28.0       27.2     78.6   -4.20    5   
#> 10  1997        0      -110       28.0       27.2     76.9   -3.60    3.5 
#> # ℹ 726 more rows
#> # ℹ 8 more variables: year_NA <fct>, latitude_NA <fct>, longitude_NA <fct>,
#> #   sea_temp_c_NA <fct>, air_temp_c_NA <fct>, humidity_NA <fct>,
#> #   wind_ew_NA <fct>, wind_ns_NA <fct>
…
